[api-updater (non-obsolete-error-filter)] 4/05/2022 21:56:19 : Starting C:/Program Files/Unity/Hub/Editor/2020.3.29f1/Editor/Data/Tools/ScriptUpdater/APIUpdater.NonObsoleteApiUpdaterDetector.exe
[api-updater (non-obsolete-error-filter)] 
----------------------------------
jit/startup time      : 348,5842ms
moved types parse time: 52ms
candidates parse time : 0ms
C# parse time         : 211ms
candidates check time : 28ms
console write time    : 0ms

